---
http_interactions:
- request:
    method: get
    uri: https://maps.googleapis.com/maps/api/geocode/json?address=%20Denver,co&key=AIzaSyAdI09sFWwTC-y2eXb8uRyMM9Ahpd0rzqw
    body:
      encoding: US-ASCII
      string: ''
    headers:
      User-Agent:
      - Faraday v0.15.4
      Accept-Encoding:
      - gzip;q=1.0,deflate;q=0.6,identity;q=0.3
      Accept:
      - "*/*"
  response:
    status:
      code: 200
      message: OK
    headers:
      Content-Type:
      - application/json; charset=UTF-8
      Date:
      - Wed, 27 Feb 2019 22:05:41 GMT
      Expires:
      - Thu, 28 Feb 2019 22:05:41 GMT
      Cache-Control:
      - public, max-age=86400
      Vary:
      - Accept-Language
      Access-Control-Allow-Origin:
      - "*"
      Server:
      - mafe
      Content-Length:
      - '448'
      X-Xss-Protection:
      - 1; mode=block
      X-Frame-Options:
      - SAMEORIGIN
      Server-Timing:
      - gfet4t7; dur=356
      Alt-Svc:
      - quic=":443"; ma=2592000; v="44,43,39"
    body:
      encoding: ASCII-8BIT
      string: |
        {
           "results" : [
              {
                 "address_components" : [
                    {
                       "long_name" : "Denver",
                       "short_name" : "Denver",
                       "types" : [ "locality", "political" ]
                    },
                    {
                       "long_name" : "Denver County",
                       "short_name" : "Denver County",
                       "types" : [ "administrative_area_level_2", "political" ]
                    },
                    {
                       "long_name" : "Colorado",
                       "short_name" : "CO",
                       "types" : [ "administrative_area_level_1", "political" ]
                    },
                    {
                       "long_name" : "United States",
                       "short_name" : "US",
                       "types" : [ "country", "political" ]
                    }
                 ],
                 "formatted_address" : "Denver, CO, USA",
                 "geometry" : {
                    "bounds" : {
                       "northeast" : {
                          "lat" : 39.91424689999999,
                          "lng" : -104.6002959
                       },
                       "southwest" : {
                          "lat" : 39.614431,
                          "lng" : -105.109927
                       }
                    },
                    "location" : {
                       "lat" : 39.7392358,
                       "lng" : -104.990251
                    },
                    "location_type" : "APPROXIMATE",
                    "viewport" : {
                       "northeast" : {
                          "lat" : 39.91424689999999,
                          "lng" : -104.6002959
                       },
                       "southwest" : {
                          "lat" : 39.614431,
                          "lng" : -105.109927
                       }
                    }
                 },
                 "place_id" : "ChIJzxcfI6qAa4cR1jaKJ_j0jhE",
                 "types" : [ "locality", "political" ]
              }
           ],
           "status" : "OK"
        }
    http_version: 
  recorded_at: Wed, 27 Feb 2019 22:05:38 GMT
- request:
    method: get
    uri: https://api.flickr.com/services/rest/?api_key=686b75dd30eb67a89c87e00073444492&content_type=1&format=json&location=denver,co&method=flickr.photos.getrecent&nojsoncallback=true&safe_search=1&sort=relevance
    body:
      encoding: US-ASCII
      string: ''
    headers:
      User-Agent:
      - Faraday v0.15.4
      Accept-Encoding:
      - gzip;q=1.0,deflate;q=0.6,identity;q=0.3
      Accept:
      - "*/*"
  response:
    status:
      code: 200
      message: OK
    headers:
      Date:
      - Wed, 27 Feb 2019 22:05:42 GMT
      Content-Type:
      - application/json
      Content-Length:
      - '5146'
      P3p:
      - policyref="https://policies.yahoo.com/w3c/p3p.xml", CP="CAO DSP COR CUR ADM
        DEV TAI PSA PSD IVAi IVDi CONi TELo OTPi OUR DELi SAMi OTRi UNRi PUBi IND
        PHY ONL UNI PUR FIN COM NAV INT DEM CNT STA POL HEA PRE LOC GOV"
      Cache-Control:
      - private
      X-Served-By:
      - www347.flickr.bf1.yahoo.com
      X-Frame-Options:
      - SAMEORIGIN
      Vary:
      - Accept-Encoding
      Age:
      - '0'
      Via:
      - http/1.1 fts122.flickr.bf1.yahoo.com (ApacheTrafficServer [cMsSf ]), http/1.1
        e31.ycpi.cha.yahoo.com (ApacheTrafficServer [cMsSf ])
      Server:
      - ATS
      Referrer-Policy:
      - no-referrer-when-downgrade
      Connection:
      - keep-alive
      Strict-Transport-Security:
      - max-age=15552000
      Expect-Ct:
      - max-age=31536000, report-uri="http://csp.yahoo.com/beacon/csp?src=yahoocom-expect-ct-report-only"
      X-Xss-Protection:
      - 1; mode=block
      X-Content-Type-Options:
      - nosniff
      Public-Key-Pins-Report-Only:
      - max-age=2592000; pin-sha256="2fRAUXyxl4A1/XHrKNBmc8bTkzA7y4FB/GLJuNAzCqY=";
        pin-sha256="I/Lt/z7ekCWanjD0Cvj5EqXls2lOaThEA0H2Bg4BT/o="; pin-sha256="Wd8xe/qfTwq3ylFNd3IpaqLHZbh2ZNCLluVzmeNkcpw=";
        pin-sha256="WoiWRyIOVNa9ihaBciRSC7XHjliYS9VwUGOIud4PB18="; pin-sha256="i7WTqTvh0OioIruIfFR4kMPnBqrS2rdiVPl/s2uC/CY=";
        pin-sha256="r/mIkG3eEpVdm+u/ko/cwxzOMo1bk4TyHIlByibiA5E="; pin-sha256="uUwZgwDOxcBXrQcntwu+kYFpkiVkOaezL0WYEZ3anJc=";
        pin-sha256="dolnbtzEBnELx/9lOEQ22e6OZO/QNb6VSSX2XHA3E7A="; includeSubdomains;
        report-uri="http://csp.yahoo.com/beacon/csp?src=yahoocom-hpkp-report-only"
    body:
      encoding: ASCII-8BIT
      string: '{"photos":{"page":1,"pages":10,"perpage":100,"total":1000,"photo":[{"id":"32289958507","owner":"169296098@N08","secret":"b81cc27a9f","server":"7896","farm":8,"title":"Attachment","ispublic":1,"isfriend":0,"isfamily":0},{"id":"32289958767","owner":"150799190@N05","secret":"de0b4b5122","server":"7922","farm":8,"title":"eut2_hq_5c76da1f","ispublic":1,"isfriend":0,"isfamily":0},{"id":"32289966757","owner":"164171940@N04","secret":"0524bf288d","server":"7901","farm":8,"title":"Class  #457.  Pix
        Day \ud83d\udcf7.                 We wasn\u2019t readyyyyyyy.  \ud83d\ude02#TestShots","ispublic":1,"isfriend":0,"isfamily":0},{"id":"32289970347","owner":"140346801@N03","secret":"cd9722b5eb","server":"7874","farm":8,"title":"From
        Internet Camera Manasquan (B0:C5:54:26:AC:2E), 2019\/02\/27 17:03:12","ispublic":1,"isfriend":0,"isfamily":0},{"id":"32289971227","owner":"158330564@N06","secret":"eef01051af","server":"7912","farm":8,"title":"I
        have a picture at 2019-02-27 16:03:05","ispublic":1,"isfriend":0,"isfamily":0},{"id":"32289976527","owner":"70333100@N08","secret":"dfb4107a6c","server":"7876","farm":8,"title":"AD17
        DBL","ispublic":1,"isfriend":0,"isfamily":0},{"id":"32289981867","owner":"168331038@N03","secret":"4049758a86","server":"7895","farm":8,"title":"2019-02-27_02-05-03","ispublic":1,"isfriend":0,"isfamily":0},{"id":"33356298488","owner":"149567335@N07","secret":"f7eabecd47","server":"7830","farm":8,"title":"E-2019-02-28-0700_f","ispublic":1,"isfriend":0,"isfamily":0},{"id":"33356300838","owner":"160453544@N06","secret":"e6dc1ba5af","server":"7808","farm":8,"title":"shoutout
        live sub 4 sub subscribe to be on the screen","ispublic":1,"isfriend":0,"isfamily":0},{"id":"33356310958","owner":"57925491@N00","secret":"8830b6ac8f","server":"7808","farm":8,"title":"IMG_20190227_152726","ispublic":1,"isfriend":0,"isfamily":0},{"id":"33356311388","owner":"115165633@N07","secret":"a5e51542d5","server":"7823","farm":8,"title":"Limerick
        at Sunset","ispublic":1,"isfriend":0,"isfamily":0},{"id":"33356317828","owner":"24676520@N05","secret":"b95d9568b3","server":"7872","farm":8,"title":"2RB_1360.jpg","ispublic":1,"isfriend":0,"isfamily":0},{"id":"33356319248","owner":"97832148@N05","secret":"bc64e1202b","server":"7845","farm":8,"title":"18403112_1916730085272843_241901999299648422_n","ispublic":1,"isfriend":0,"isfamily":0},{"id":"33356319618","owner":"100490615@N07","secret":"51f8f74218","server":"7888","farm":8,"title":"8758","ispublic":1,"isfriend":0,"isfamily":0},{"id":"33356320918","owner":"36973794@N02","secret":"3594bd979b","server":"7808","farm":8,"title":"J75A9302.jpg","ispublic":1,"isfriend":0,"isfamily":0},{"id":"33356322908","owner":"150397415@N04","secret":"7c1d8bb911","server":"7898","farm":8,"title":"","ispublic":1,"isfriend":0,"isfamily":0},{"id":"33356324728","owner":"148780336@N07","secret":"bc97f93b77","server":"7902","farm":8,"title":"IMG_20190209_125301_411","ispublic":1,"isfriend":0,"isfamily":0},{"id":"33356324798","owner":"144270491@N08","secret":"bdd8f2b75d","server":"7813","farm":8,"title":"","ispublic":1,"isfriend":0,"isfamily":0},{"id":"33356327878","owner":"135882099@N03","secret":"cf24a5b368","server":"7899","farm":8,"title":"Wild
        bees is the Australian bush","ispublic":1,"isfriend":0,"isfamily":0},{"id":"33356328848","owner":"76392803@N08","secret":"fb03c82250","server":"7842","farm":8,"title":"Dad2019-0873.jpg","ispublic":1,"isfriend":0,"isfamily":0},{"id":"40266969453","owner":"79626989@N00","secret":"ed99686668","server":"7808","farm":8,"title":"Texas
        Futuro","ispublic":1,"isfriend":0,"isfamily":0},{"id":"40266976033","owner":"156595297@N03","secret":"91269f3728","server":"7920","farm":8,"title":"2019-02-27_11-01-25","ispublic":1,"isfriend":0,"isfamily":0},{"id":"40266979703","owner":"160169663@N04","secret":"cca9415bdc","server":"7924","farm":8,"title":"6
        x 6\" Cards & Envelopes (12pk) - Gorjuss (GOR 150607)","ispublic":1,"isfriend":0,"isfamily":0},{"id":"40266983173","owner":"139375961@N08","secret":"a5f8c37954","server":"7823","farm":8,"title":">
        WWII (FW3\/22) Type-22 Pillbox, Hase''s Lane, Easthaugh [TG-0881 1723]","ispublic":1,"isfriend":0,"isfamily":0},{"id":"40266984403","owner":"58842232@N08","secret":"75fb251487","server":"7806","farm":8,"title":"Modelo
        protrait","ispublic":1,"isfriend":0,"isfamily":0},{"id":"40266986903","owner":"163184017@N08","secret":"1778829a3f","server":"7891","farm":8,"title":"Question
        Even the Most Commonly Held Beliefs! | Zero Xcuses Podcast | Discipline |
        Results |...","ispublic":1,"isfriend":0,"isfamily":0},{"id":"40266990393","owner":"26295218@N03","secret":"4a4a5462f3","server":"7812","farm":8,"title":"The
        Hive","ispublic":1,"isfriend":0,"isfamily":0},{"id":"40266991623","owner":"55107977@N02","secret":"ac7f63bc3a","server":"7881","farm":8,"title":"Rocky
        and icy, 2. #landscape #photography #castle #germany #neuschwanstein #bnw_planet","ispublic":1,"isfriend":0,"isfamily":0},{"id":"40266992083","owner":"132174459@N07","secret":"a0ea12c4ff","server":"7847","farm":8,"title":"Simple
        mini acrylic painting. \ud83c\udf38#miniacrylicpainting #acrylicpainting #painting
        #miniaturistsunited #miniaturepainting #miniatureart #landscape #landscapepainting
        #acryliclandscapepainting #tinypaintingoftheday #acrylicsonwood #landscape","ispublic":1,"isfriend":0,"isfamily":0},{"id":"40266994463","owner":"163977724@N08","secret":"c4a2cb483a","server":"7822","farm":8,"title":"Rainy
        afternoon in German Odenwald (Siedelsbrunn) [OC][1619x1080]","ispublic":1,"isfriend":0,"isfamily":0},{"id":"40266996723","owner":"149117582@N05","secret":"65f8314e7e","server":"7901","farm":8,"title":"SAM_2750","ispublic":1,"isfriend":0,"isfamily":0},{"id":"40266997223","owner":"100464914@N08","secret":"79b4734558","server":"7814","farm":8,"title":"Lighthouses","ispublic":1,"isfriend":0,"isfamily":0},{"id":"40266997463","owner":"169871313@N02","secret":"2bda5c800c","server":"7869","farm":8,"title":"2019-02-27_05-03-42","ispublic":1,"isfriend":0,"isfamily":0},{"id":"40266998913","owner":"165040984@N04","secret":"8a2352b010","server":"7907","farm":8,"title":"David
        and Michael","ispublic":1,"isfriend":0,"isfamily":0},{"id":"40267003713","owner":"165367682@N02","secret":"ce9fbc6e6d","server":"7818","farm":8,"title":"UM595-02\/27
        22:57","ispublic":1,"isfriend":0,"isfamily":0},{"id":"40267004363","owner":"156090850@N07","secret":"06c30ec0fa","server":"7910","farm":8,"title":"Sneek
        waterpoort Friesland","ispublic":1,"isfriend":0,"isfamily":0},{"id":"40267004753","owner":"85104292@N07","secret":"886b9c783e","server":"7822","farm":8,"title":"","ispublic":1,"isfriend":0,"isfamily":0},{"id":"40267005383","owner":"154450727@N03","secret":"cab85215ef","server":"7843","farm":8,"title":"Katsumi","ispublic":1,"isfriend":0,"isfamily":0},{"id":"40267006213","owner":"33656993@N06","secret":"bbcbaf7b2f","server":"7906","farm":8,"title":"","ispublic":1,"isfriend":0,"isfamily":0},{"id":"40267006443","owner":"96465706@N00","secret":"439602e967","server":"7814","farm":8,"title":"ceramics
        - glaze 1","ispublic":1,"isfriend":0,"isfamily":0},{"id":"40267007473","owner":"164308945@N03","secret":"6699a12ff8","server":"7819","farm":8,"title":"Dragonfly","ispublic":1,"isfriend":0,"isfamily":0},{"id":"40267008073","owner":"99224362@N04","secret":"b0253211fc","server":"7911","farm":8,"title":"\u0627\u0644\u0628\u0627\u062d\u0629","ispublic":1,"isfriend":0,"isfamily":0},{"id":"40267009063","owner":"27067946@N00","secret":"20a11e68e3","server":"7831","farm":8,"title":"Opel
        Astra Coup\u00e9 Cabriolet Bertone","ispublic":1,"isfriend":0,"isfamily":0},{"id":"40267009553","owner":"51598405@N02","secret":"3bd96c32f3","server":"7926","farm":8,"title":"P1300376","ispublic":1,"isfriend":0,"isfamily":0},{"id":"40267010053","owner":"170142393@N02","secret":"88caf10ed7","server":"7859","farm":8,"title":"Non
        deux ski 2018","ispublic":1,"isfriend":0,"isfamily":0},{"id":"40267010223","owner":"144541566@N03","secret":"97c66be1c6","server":"7802","farm":8,"title":"kyotyann_014","ispublic":1,"isfriend":0,"isfamily":0},{"id":"46317549905","owner":"164714906@N06","secret":"56c08100d8","server":"7904","farm":8,"title":"day
        seven: big water pillies","ispublic":1,"isfriend":0,"isfamily":0},{"id":"46317549985","owner":"144859629@N06","secret":"1d694d9d3b","server":"7826","farm":8,"title":"Lazy
        day","ispublic":1,"isfriend":0,"isfamily":0},{"id":"46317550965","owner":"47258353@N07","secret":"7b8dc73649","server":"7918","farm":8,"title":"2019-02-27
        17:00:03 - Cabin cam","ispublic":1,"isfriend":0,"isfamily":0},{"id":"46317558045","owner":"155067196@N06","secret":"3a5357005b","server":"7847","farm":8,"title":"HARD
        NOX BUILD FOR KODI 18 LEIA BEST NEW AND FAST KODI BUILDS FROM MISFIT MODS
        WIZARD","ispublic":1,"isfriend":0,"isfamily":0},{"id":"46317558485","owner":"133863753@N07","secret":"5f8538f188","server":"7917","farm":8,"title":"2019-02-27_10-02-13","ispublic":1,"isfriend":0,"isfamily":0},{"id":"46317560765","owner":"99060913@N04","secret":"6b5b535afe","server":"7835","farm":8,"title":"IMG_20190224_182934-01","ispublic":1,"isfriend":0,"isfamily":0},{"id":"46317561885","owner":"46519718@N00","secret":"be4342ac40","server":"7809","farm":8,"title":"Autoshow
        promoter","ispublic":1,"isfriend":0,"isfamily":0},{"id":"46317563015","owner":"41566799@N03","secret":"0e58ec2022","server":"7814","farm":8,"title":"Dark
        Phoenix!","ispublic":1,"isfriend":0,"isfamily":0},{"id":"46317564685","owner":"98115708@N03","secret":"6c1073da9d","server":"7844","farm":8,"title":"20190227_133148","ispublic":1,"isfriend":0,"isfamily":0},{"id":"46317569155","owner":"156605883@N05","secret":"00df71e4a2","server":"7836","farm":8,"title":"#tulips
        #yellow #spring #nature #photography","ispublic":1,"isfriend":0,"isfamily":0},{"id":"46317569195","owner":"142485773@N04","secret":"8a09c276f9","server":"7831","farm":8,"title":"DSC_9821","ispublic":1,"isfriend":0,"isfamily":0},{"id":"46317569315","owner":"145623550@N08","secret":"610cff381a","server":"7809","farm":8,"title":"Guest
        Bedroom to Guest Suite- Before","ispublic":1,"isfriend":0,"isfamily":0},{"id":"46317574095","owner":"70051833@N00","secret":"498438927d","server":"7859","farm":8,"title":"20181008104507.jpg","ispublic":1,"isfriend":0,"isfamily":0},{"id":"46317575175","owner":"36922375@N08","secret":"94a8b4a405","server":"7917","farm":8,"title":"Moeraki
        Boulder Emerges","ispublic":1,"isfriend":0,"isfamily":0},{"id":"46317576065","owner":"38714066@N00","secret":"5325e9bc63","server":"7927","farm":8,"title":"Apollo
        Superette Austin, MN","ispublic":1,"isfriend":0,"isfamily":0},{"id":"46317578805","owner":"10194419@N00","secret":"bda1397e4b","server":"7810","farm":8,"title":"20190227170622141ch01","ispublic":1,"isfriend":0,"isfamily":0},{"id":"46508551054","owner":"15157510@N00","secret":"051dd015ca","server":"7887","farm":8,"title":"This
        was a great takeaway lunch that reminded me of a lunch place I frequented
        in Paddington. Good stuff.","ispublic":1,"isfriend":0,"isfamily":0},{"id":"46508554794","owner":"25926635@N05","secret":"69b58e498a","server":"7806","farm":8,"title":"Lunch
        2019 02 27","ispublic":1,"isfriend":0,"isfamily":0},{"id":"46508557324","owner":"157239102@N05","secret":"3ef5c0aee9","server":"7817","farm":8,"title":"Record
        by Always E-mail[Image], 2016-01-04 09:25:36","ispublic":1,"isfriend":0,"isfamily":0},{"id":"46508557674","owner":"79123642@N04","secret":"635fc76c8f","server":"7920","farm":8,"title":"Streets
        of New York","ispublic":1,"isfriend":0,"isfamily":0},{"id":"46508557994","owner":"89639718@N05","secret":"2122811a2d","server":"7826","farm":8,"title":"Texturas,
        agua y luz.jpg","ispublic":1,"isfriend":0,"isfamily":0},{"id":"46508558864","owner":"47312882@N05","secret":"7f84d547f7","server":"7815","farm":8,"title":"Seaweed","ispublic":1,"isfriend":0,"isfamily":0},{"id":"46508560454","owner":"154937574@N02","secret":"96fb3c654a","server":"7884","farm":8,"title":"10
        Questions You Need to Ask Before Buying New Gear","ispublic":1,"isfriend":0,"isfamily":0},{"id":"46508561124","owner":"144636229@N06","secret":"5b7b1ea9e7","server":"7852","farm":8,"title":"","ispublic":1,"isfriend":0,"isfamily":0},{"id":"46508562174","owner":"168641822@N02","secret":"9467a6d582","server":"7898","farm":8,"title":"Untitled","ispublic":1,"isfriend":0,"isfamily":0},{"id":"47179895582","owner":"146732425@N05","secret":"8c8288756f","server":"7852","farm":8,"title":"received_456779671818593","ispublic":1,"isfriend":0,"isfamily":0},{"id":"47179896492","owner":"94726812@N04","secret":"3368ed8a8e","server":"7834","farm":8,"title":"Sedg","ispublic":1,"isfriend":0,"isfamily":0},{"id":"47179900772","owner":"169485639@N03","secret":"7a1216531f","server":"7853","farm":8,"title":"Portraits-55.jpg","ispublic":1,"isfriend":0,"isfamily":0},{"id":"47179903852","owner":"169623884@N04","secret":"bc42252d4e","server":"7837","farm":8,"title":"search\ub780\uc81c\ub9ac<\uc774\ubca4\ud2b8&\ud560\uc778\uad8c&\ubb34\ub8cc\uad8c|\ubb34\uc870\uac74\ub2f9\ucca8>http:\/\/ddakbam.com\/\uac15\ub0a8\ud480\uc2f8\ub871\/\ub8f8\uc2f8\ub871","ispublic":1,"isfriend":0,"isfamily":0},{"id":"47179905952","owner":"125102028@N06","secret":"ce9ae73a74","server":"7824","farm":8,"title":"Whether
        you need a quiet place to study, or somewhere to talk with friends, Grasselli
        is for everyone. . . . A shout out to @hafuboti for this artwork that librarians
        love! #librariesareforeveryone #libraries #johncarroll","ispublic":1,"isfriend":0,"isfamily":0},{"id":"47179915712","owner":"32692888@N02","secret":"69d5e545ca","server":"7807","farm":8,"title":"Duck","ispublic":1,"isfriend":0,"isfamily":0},{"id":"47179925112","owner":"85197777@N08","secret":"cbde2cfc5e","server":"7890","farm":8,"title":"IMGL0158","ispublic":1,"isfriend":0,"isfamily":0},{"id":"47179925572","owner":"151639852@N07","secret":"e0fc152f8c","server":"7807","farm":8,"title":"2007-08-23_12-39-44_DSC-H2_DSC01934","ispublic":1,"isfriend":0,"isfamily":0},{"id":"47179926152","owner":"146269332@N03","secret":"6567453a7c","server":"7911","farm":8,"title":"Liverpool
        5-0 Watford (Trending Twitter Topics from 27.02.2019)","ispublic":1,"isfriend":0,"isfamily":0},{"id":"47232053581","owner":"169586999@N03","secret":"73fca38340","server":"7879","farm":8,"title":"Wilson-Raybould
        says she faced political interference, ''veiled threats'' over SNC-Lavalin
        affair","ispublic":1,"isfriend":0,"isfamily":0},{"id":"47232055681","owner":"34127069@N02","secret":"ab6bf6cb18","server":"7820","farm":8,"title":"E\u30c6\u30ec0655","ispublic":1,"isfriend":0,"isfamily":0},{"id":"47232056811","owner":"10387302@N08","secret":"b6e5c7550e","server":"7834","farm":8,"title":"Where
        are my fellow moms working for their dreams? Waking up early and staying up
        late to work that \"side hustle\" that will help pay bills, relieve debt and
        eventually lead to freedom? To your dreams?  I know you probably feel guilty
        now and then about th","ispublic":1,"isfriend":0,"isfamily":0},{"id":"47232057781","owner":"97102756@N07","secret":"f22c3da340","server":"7878","farm":8,"title":"E-2019-02-28-0700_f","ispublic":1,"isfriend":0,"isfamily":0},{"id":"47232058861","owner":"77585122@N00","secret":"1bda9ea724","server":"7920","farm":8,"title":"Good
        morning!","ispublic":1,"isfriend":0,"isfamily":0},{"id":"47232060661","owner":"144005106@N04","secret":"2192f2af80","server":"7847","farm":8,"title":"#bear
        #winterstyle #winteriscoming #winterishere #photography #photographyy #photographer
        #photographers #love #lovequotes #loveit #loveislove #photogrid #instaquote
        #instatravel #photooftheday #photos #picoftheday #pic #picoftheday #huaweiy7
        #huaweiy7pri","ispublic":1,"isfriend":0,"isfamily":0},{"id":"47232062111","owner":"101116918@N08","secret":"235c59cd75","server":"7888","farm":8,"title":"2019-02-28_06-02-12","ispublic":1,"isfriend":0,"isfamily":0},{"id":"47232066381","owner":"41969243@N00","secret":"72ee350257","server":"7885","farm":8,"title":"Scotland
        Oct 2018","ispublic":1,"isfriend":0,"isfamily":0},{"id":"47232068641","owner":"153117683@N06","secret":"b618f999cc","server":"7915","farm":8,"title":"Honeycomb
        Nature Inspired Wooden Wall Clock Contemporary Style Laser Engraved Hexagonal
        Clock Wall Watch Bamboo Bee Home Decor","ispublic":1,"isfriend":0,"isfamily":0},{"id":"47232078841","owner":"39869687@N00","secret":"d653702402","server":"7802","farm":8,"title":"","ispublic":1,"isfriend":0,"isfamily":0},{"id":"47232079951","owner":"166242206@N06","secret":"8e4fb57685","server":"7878","farm":8,"title":"Black
        swan..","ispublic":1,"isfriend":0,"isfamily":0},{"id":"47232082541","owner":"168449684@N07","secret":"a26d2195e1","server":"7813","farm":8,"title":"MAKING
        OF PAMELA","ispublic":1,"isfriend":0,"isfamily":0},{"id":"47232084241","owner":"168624628@N03","secret":"a21255ca8e","server":"7921","farm":8,"title":"EVEE
        <3 HER","ispublic":1,"isfriend":0,"isfamily":0},{"id":"47232086541","owner":"11802018@N07","secret":"a1782bc948","server":"7865","farm":8,"title":"bufflehead
        duck in flight","ispublic":1,"isfriend":0,"isfamily":0},{"id":"47232088121","owner":"159968836@N06","secret":"096c8cfb6b","server":"7814","farm":8,"title":"","ispublic":1,"isfriend":0,"isfamily":0},{"id":"47232089551","owner":"78166242@N06","secret":"5db3a13fc8","server":"7807","farm":8,"title":"Mares
        de Chile","ispublic":1,"isfriend":0,"isfamily":0},{"id":"47232089791","owner":"145371335@N02","secret":"d915f66196","server":"7884","farm":8,"title":"\u2b55\ufe0f
        Like for more!  \u27a1\ufe0f ##mbphotograph #wallpappers #hd #4k #colors #iphone
        #idevice #phone #amazing #awesome","ispublic":1,"isfriend":0,"isfamily":0},{"id":"47232090631","owner":"125438310@N04","secret":"5685a604ed","server":"7919","farm":8,"title":"Watching:
        the walking dead:s8:e9-honor","ispublic":1,"isfriend":0,"isfamily":0},{"id":"47232092671","owner":"154374586@N07","secret":"16ca83e04f","server":"7848","farm":8,"title":"","ispublic":1,"isfriend":0,"isfamily":0},{"id":"47232093551","owner":"71461265@N07","secret":"f6fb33eb6d","server":"7868","farm":8,"title":"IMG_2472-01","ispublic":1,"isfriend":0,"isfamily":0}]},"stat":"ok"}'
    http_version: 
  recorded_at: Wed, 27 Feb 2019 22:05:39 GMT
recorded_with: VCR 4.0.0
